итого 16

Hello dog!)

drwxr-xr-x 3 sergey sergey 4096 янв 26 11:31 .
drwxr-xr-x 6 sergey sergey 4096 янв 26 11:17 ..
-rw-r--r-- 1 sergey sergey   12 янв 26 11:24 copy.txt
-rw-r--r-- 1 sergey sergey    0 янв 26 11:33 file.txt
drwxr-xr-x 2 sergey sergey 4096 янв 26 11:32 otherdir
copy.txt
file.txt
otherdir
